…
Data mugging

Decisions per country

Another interesting angle to look at the available data is to see at which countries the individual complaints were actually addressed. To do so we have to bear in mind that some communications are addressed to more than one country. See the table below.

Code: Example of communications with multiple countries

df_multiple_countries <- df_res %>%
  select(contains("countries")) %>%
  filter(str_detect(countries, regex(".*[a-z][A-Z].*")))

## # A tibble: 39 x 1
##    countries                                  
##    <chr>                                      
##  1 SwedenSwitzerland                          
##  2 AzerbaijanSweden                           
##  3 Democratic Republic of the CongoSwitzerland
##  4 CanadaMexico                               
##  5 AfghanistanSweden                          
##  6 AzerbaijanSweden                           
##  7 MoroccoRussian Federation                  
##  8 DenmarkIran (Islamic Republic of)          
##  9 IndiaSwitzerland                           
## 10 SwedenTurkey                               
## # ... with 29 more rows
…
