Segregation in Vienna's primary schools?
…
#apply function to all schools
df_destination_data <- map_dfr(df_destinations_links$link, 
                               possibly(fn_get_destination_data,
                                        otherwise = tibble()))

#only 257 out of 263 primary schools with destination data; 
#6 schools still without 'graduates'
length(unique(df_destination_data$properties_skz_vj)) 

## [1] 257

df_destination_data

## # A tibble: 4,870 x 17
##    type  id    geometry properties_skz_~ properties_ipub~ properties_skz_~ properties_ipub~ properties_kart~ properties_beze~ properties_plz
##    <chr> <chr> <lgl>    <chr>            <chr>            <chr>            <chr>            <chr>            <chr>            <chr>         
##  1 Feat~ ATLA~ NA       923081           01               923042           02a              NMSH             Neue Mittelschu~ 1230          
##  2 Feat~ ATLA~ NA       923081           01               923046           05a              NMSA             Bundesrealgymna~ 1230          
##  3 Feat~ ATLA~ NA       923081           01               923092           02a              NMSH             Neue Mittelschu~ 1230          
##  4 Feat~ ATLA~ NA       923081           01               923052           02a              NMSH             Neue Mittelschu~ 1230          
##  5 Feat~ ATLA~ NA       923081           01               923066           05               AHS              Bundesrealgymna~ 1230          
##  6 Feat~ ATLA~ NA       923081           01               923012           02a              NMSH             Neue Mittelschu~ 1230          
##  7 Feat~ ATLA~ NA       923081           01               317036           05               AHS              Bundesgymnasium~ 2380          
##  8 Feat~ ATLA~ NA       923081           01               923062           02a              NMSH             Private Neue Mi~ 1230          
##  9 Feat~ ATLA~ NA       923081           01               915016           05               AHS              Bundesrealgymna~ 1150          
## 10 Feat~ ATLA~ NA       923081           01               910042           02a              NMSH             Neue Mittelschu~ 1100          
## # ... with 4,860 more rows, and 7 more variables: properties_ort <chr>, properties_str <chr>, properties_anzahl <int>, properties_x_s2 <dbl>,
## #   properties_y_s2 <dbl>, properties_ipub2_bezeichnung <chr>, school_link <chr>
…
df_difference

## # A tibble: 32,896 x 5
## # Groups:   pair_indicator [32,896]
##    pair_indicator school_1 school_2        difference         diff_abs
##    <chr>             <dbl> <chr>                <dbl>            <dbl>
##  1 901011-901021    901011 901021    -0.0114942528736  0.0114942528736
##  2 901011-901031    901011 901031    -0.159920039980   0.159920039980 
##  3 901011-902011    901011 902011     0.0204342273308  0.0204342273308
##  4 901011-902021    901011 902021     0.407682234832   0.407682234832 
##  5 901011-902031    901011 902031     0.459986987638   0.459986987638 
##  6 901011-902051    901011 902051     0.418255578093   0.418255578093 
##  7 901011-902071    901011 902071     0.0659100829332  0.0659100829332
##  8 901011-902081    901011 902081     0.466073414905   0.466073414905 
##  9 901011-902091    901011 902091     0.0862068965517  0.0862068965517
## 10 901011-902101    901011 902101     0.349137931034   0.349137931034 
## # ... with 32,886 more rows
…
#cacluate the factor by which one school's AHS differeds from another school's AHS ratio.
#the pmin/pmax function ensures that the school with the lower AHS ratio is
#is the denominator; makes comparison between school pairs easier;
df_main <-  df_main %>% 
  mutate(diff_factor=map2_dbl(school_1_n_rel, school_2_n_rel, 
                              function(x, y) pmax(x,y)/pmin(x,y)))

#Here the full table with the data
df_main

## # A tibble: 32,896 x 21
## # Groups:   pair_indicator [32,896]
##    pair_indicator school_1 school_2       difference        diff_abs school_1_details school_1_lat school_1_long school_2_details school_2_lat
##    <chr>             <dbl>    <dbl>            <dbl>           <dbl> <list>                  <dbl>         <dbl> <list>                  <dbl>
##  1 901011-901021    901011   901021 -0.0114942528736 0.0114942528736 <tibble [1 x 18~   48.2135351 16.3686268000 <tibble [1 x 18~  48.2071269 
##  2 901011-901031    901011   901031 -0.159920039980  0.159920039980  <tibble [1 x 18~   48.2135351 16.3686268000 <tibble [1 x 18~  48.2115609 
##  3 901011-902011    901011   902011  0.0204342273308 0.0204342273308 <tibble [1 x 18~   48.2135351 16.3686268000 <tibble [1 x 18~  48.1964153 
##  4 901011-902021    901011   902021  0.407682234832  0.407682234832  <tibble [1 x 18~   48.2135351 16.3686268000 <tibble [1 x 18~  48.2149026 
##  5 901011-902031    901011   902031  0.459986987638  0.459986987638  <tibble [1 x 18~   48.2135351 16.3686268000 <tibble [1 x 18~  48.22216310
##  6 901011-902051    901011   902051  0.418255578093  0.418255578093  <tibble [1 x 18~   48.2135351 16.3686268000 <tibble [1 x 18~  48.2155407 
##  7 901011-902071    901011   902071  0.0659100829332 0.0659100829332 <tibble [1 x 18~   48.2135351 16.3686268000 <tibble [1 x 18~  48.2186668 
##  8 901011-902081    901011   902081  0.466073414905  0.466073414905  <tibble [1 x 18~   48.2135351 16.3686268000 <tibble [1 x 18~  48.2205238 
##  9 901011-902091    901011   902091  0.0862068965517 0.0862068965517 <tibble [1 x 18~   48.2135351 16.3686268000 <tibble [1 x 18~  48.22407   
## 10 901011-902101    901011   902101  0.349137931034  0.349137931034  <tibble [1 x 18~   48.2135351 16.3686268000 <tibble [1 x 18~  48.223532  
## # ... with 32,886 more rows, and 11 more variables: school_2_long <dbl>, address1 <chr>, address2 <chr>, school_1_erhalter <chr>,
## #   school_2_erhalter <chr>, school_erhalter_indicator <chr>, erhalter_type <chr>, school_1_n_rel <dbl>, school_2_n_rel <dbl>, tooltip <chr>,
## #   diff_factor <dbl>
…
#to map the distm function to the four geo-location data points (lat & lon for school 1 and lat & long
#for school 2 use the pmap function from the purrr package)

df_main <- df_main %>% 
  ungroup() %>% 
  mutate(distance = pmap_dbl(list(school_1_lat, school_1_long,
                             school_2_lat, school_2_long), 
                             ~distm(x = c(..1, ..2), 
                                    y = c(..3, ..4), 
                                    fun = distHaversine)))

df_main %>% 
  select(school_1, school_2, distance) 

## # A tibble: 32,896 x 3
##    school_1 school_2        distance
##       <dbl>    <dbl>           <dbl>
##  1   901011   901021  1322.12586993 
##  2   901011   901031   221.981756970
##  3   901011   902011  8514.91714061 
##  4   901011   902021  2125.67089786 
##  5   901011   902031  2023.97252847 
##  6   901011   902051   997.484473991
##  7   901011   902071  1945.94081999 
##  8   901011   902081  4114.26308218 
##  9   901011   902091  2122.76126427 
## 10   901011   902101  3961.30726004 
## # ... with 32,886 more rows
…
